\contentsline {chapter}{\tocchapter {Chapter}{}{Student Plagiarism: Compliance Statement}}{ii}{chapter*.2}
\contentsline {chapter}{\tocchapter {Chapter}{}{Abstract}}{iii}{chapter*.4}
\contentsline {chapter}{\tocchapter {Chapter}{}{Acknowledgements}}{iv}{chapter*.6}
\contentsline {chapter}{\tocchapter {Chapter}{}{List of Figures}}{vi}{chapter*.6}
\contentsline {chapter}{\tocchapter {Chapter}{}{List of Tables}}{vii}{chapter*.6}
\contentsline {chapter}{\tocchapter {Chapter}{1}{Introduction}}{1}{chapter.1}
\contentsline {section}{\tocsection {}{1.1}{Motivation}}{1}{section.1.1}
\contentsline {section}{\tocsection {}{1.2}{Computer assisted diagnosis}}{2}{section.1.2}
\contentsline {section}{\tocsection {}{1.3}{Aims p and link across}{4}{section*.11}} \pgfsyspdfmark {pgfid5}{19562750}{15116324} \citation {specificity_sensitivity} \@writefile {toc}{\contentsline {section}{\tocsection {}{1.4}{Contribution}}{5}{section.1.4}} \@writefile {tdo}{\contentsline {todo}{\color@fb@x {}{black}{}{orange}{\leavevmode {\color {orange}o}}\ Royal we, and number sections}{5}{section*.12}} \pgfsyspdfmark {pgfid6}{19562750}{29340337} \@writefile {tdo}{\contentsline {todo}{\color@fb@x {}{black}{}{orange}{\leavevmode {\color {orange}o}}\ Justify harmonic mean of sensitivity and specificity, REPLACE f1-score in tables with this metric, is it somewhere in literature?? Based off F1-Score. But the metric space of this metric is strange! I would argue > 0.8 is a good value? Maybe sensitivity + specificity is a better measure...}{5}{section*.13}} \pgfsyspdfmark {pgfid7}{19562750}{13228596} \@writefile {toc}{\contentsline {chapter}{\tocchapter {Chapter}{2}{Background}}{7}{chapter.2}} \@writefile {lof}{\addvspace {10\p@ }} \@writefile {lot}{\addvspace {10\p@ }} \@writefile {tdo}{\contentsline {todo}{\color@fb@x {}{black}{}{orange}{\leavevmode {\color {orange}o}}\ Mention what DermoKNet is based off}{7}{section*.14}} \pgfsyspdfmark {pgfid8}{19562750}{37296692} \@writefile {tdo}{\contentsline {todo}{\color@fb@x {}{black}{}{orange}{\leavevmode {\color {orange}o}}\ Have both machine learning + medical background in this section}{7}{section*.15}} \pgfsyspdfmark {pgfid9}{19562750}{35379764} \@writefile {tdo}{\contentsline {todo}{\color@fb@x {}{black}{}{orange}{\leavevmode {\color {orange}o}}\ Problem domain background + literature review background + 1 sentence justification here + full justification in methodlogy + no distractions in background + no jumping back and forth as it confuses reader}{7}{section*.16}} \pgfsyspdfmark {pgfid10}{19562750}{33419722} \@writefile {tdo}{\contentsline {todo}{\color@fb@x {}{black}{}{orange}{\leavevmode {\color {orange}o}}\ Ensure core story is not lost}{7}{section*.17}} \pgfsyspdfmark {pgfid11}{19562750}{31109578} \@writefile {tdo}{\contentsline {todo}{\color@fb@x {}{black}{}{orange}{\leavevmode {\color {orange}o}}\ avoid walls of text, bullet points, picture or tables where it makes sense, sometimes walls of text is needed, but sometimes tables are useful, e.g., abcde}{7}{section*.18}} \pgfsyspdfmark {pgfid12}{19562750}{29152287} \@writefile {tdo}{\contentsline {todo}{\color@fb@x {}{black}{}{orange}{\leavevmode {\color {orange}o}}\ Future work section??? or make to reference potential for future work due to time constraints in future\\ e.g. Using DCGAN, for data augmentation, using SVM for temporal weighting, using a validation set for weighting}{7}{section*.19}} \pgfsyspdfmark {pgfid13}{19562750}{26773336} \@writefile {tdo}{\contentsline {todo}{\color@fb@x {}{black}{}{orange}{\leavevmode {\color {orange}o}}\ Talk about what ensembles are? (A form of bagging(?) to reduce overall bias)}{7}{section*.20}} \pgfsyspdfmark {pgfid14}{19562750}{24472366} \@writefile {tdo}{\contentsline {todo}{\color@fb@x {}{black}{}{orange}{\leavevmode {\color {orange}o}}\ Do more subheadings to break it up, e.g. contribution,n in introduction and motivation etc., problem definition, aims and contributions}{7}{section*.21}} \pgfsyspdfmark {pgfid15}{19562750}{22474706} \@writefile {tdo}{\contentsline {todo}{\color@fb@x {}{black}{}{orange}{\leavevmode {\color {orange}o}}\ Deep learning + CNN in the same subsection, computer-assisted diagnosis in separate setup/section}{7}{section*.22}} \pgfsyspdfmark {pgfid16}{19562750}{20193006} \@writefile {tdo}{\contentsline {todo}{\color@fb@x {}{black}{}{orange}{\leavevmode {\color {orange}o}}\ Cut down on stuff you didn't use such as temporal networks}{7}{section*.23}} \pgfsyspdfmark {pgfid17}{19562750}{18247634} \@writefile {tdo}{\contentsline {todo}{\color@fb@x {}{black}{}{orange}{\leavevmode {\color {orange}o}}\ Summary of gaps, what is missing (since the literature review itself is a summary)}{7}{section*.24}} \pgfsyspdfmark {pgfid18}{19562750}{16368324} \@writefile {tdo}{\contentsline {todo}{\color@fb@x {}{black}{}{orange}{\leavevmode {\color {orange}o}}\ Limitations, for this research, however, to get more robust, future research would be cross-validation for weights of the network; small dataset}{7}{section*.25}} \pgfsyspdfmark {pgfid19}{19562750}{14342220} \@writefile {tdo}{\contentsline {todo}{\color@fb@x {}{black}{}{orange}{\leavevmode {\color {orange}o}}\ Need to include limitations, processes, datasets, be upfront, and how it impacts the study and write it in a way that says that (it doesn't seem incomplete but has hopes of expansion, give it a positive spin)}{7}{section*.26}} \pgfsyspdfmark {pgfid20}{19562750}{11922900} \@writefile {tdo}{\contentsline {todo}{\color@fb@x {}{black}{}{orange}{\leavevmode {\color {orange}o}}\ More tables/figs, avoid writing sentences, e.g. dataset in a table, wouldn't learn any variation from just 1 in-mel anyway}{7}{section*.27}} \pgfsyspdfmark {pgfid21}{4736286}{9386177} \pgfsyspdfmark {pgfid24}{38075615}{9293302} \pgfsyspdfmark {pgfid25}{41008351}{9143981} \@writefile {tdo}{\contentsline {todo}{\color@fb@x {}{black}{}{orange}{\leavevmode {\color {orange}o}}\ Create blank table/graphs to fill in and do discussion}{7}{section*.28}} \pgfsyspdfmark {pgfid26}{19562750}{7658210} \@writefile {tdo}{\contentsline {todo}{\color@fb@x {}{black}{}{orange}{\leavevmode {\color {orange}o}}\ write parts of intepretation already and what expected results are and update when they are done}{7}{section*.29}} \citation {melafind,solr_scan} \citation {laser_based} \citation {optical_coherence} \citation {ultra_imaging} \citation {mri} \citation {specificity_sensitivity} \pgfsyspdfmark {pgfid27}{19562750}{47279013} \@writefile {tdo}{\contentsline {todo}{\color@fb@x {}{black}{}{orange}{\leavevmode {\color {orange}o}}\ I think this is the discusison \\ Comparison to prior techniques? \\ Write like a paper but more context and detail \\ Show the logic flow \\ Explain what temporal means \\ ABCDEF doctor rule + picture \\ Benefits of temporal information + results \\ How does it further the field? \\ Cost/benefit analysis such as the patient's finance etc and emotion \\ Make it read like a logic story?? \\ Every major idea should have a reference or referring to specific work like RECOD titans \\ Include first-time comparison results \\ Draw upon theory (???) \\ cite CNN papers \\ aim for 60 references \\ Cite ensemble papers \\ cite tensorflow (TENSORFLOW A SYSTEM FOR LARGE SCALE) and matcovnet \\ footnote url??? \\ Why LSTM is not used and cannot be used? Mention other possibilities and why they can't be used? \\ Deepflow can't be used why? (introduce in a lit review?) \\ INtroduce class imbalance papers and how to solve with loss function and undersample/oversample and pros/cons and why we went with simple aug (beyond the scope of thesis?) \\ }{8}{section*.30}} \pgfsyspdfmark {pgfid28}{19562750}{37448228} \@writefile {tdo}{\contentsline {todo}{\color@fb@x {}{black}{}{orange}{\leavevmode {\color {orange}o}}\ MatCovNet and RECOD titans separate chapters talking about strengths and weaknesses of the networks + reword discussion based on lit review}{8}{section*.31}} \pgfsyspdfmark {pgfid29}{19562750}{27193032} \@writefile {tdo}{\contentsline {todo}{\color@fb@x {}{black}{}{orange}{\leavevmode {\color {orange}o}}\ Explain various Melanoma malignant cases, how rare non-melanoma metastasizes, and melanoma often always metastasizes (this is reflected in the dataset)}{8}{section*.32}} \pgfsyspdfmark {pgfid30}{19562750}{24802156} \@writefile {toc}{\contentsline {section}{\tocsection {}{2.1}{Dermoscopy}}{8}{section.2.1}} \@writefile {toc}{\contentsline {subsection}{\tocsubsection {}{2.1.1}{Tools used to diagnose Melanoma}}{9}{subsection.2.1.1}} \citation {accuracy_melenoma} \@writefile {toc}{\contentsline {section}{\tocsection {}{2.2}{Neural Network approaches to Computer Vision}}{11}{section.2.2}} \@writefile {toc}{\contentsline {subsection}{\tocsubsection {}{2.2.1}{Artifical Neural Networks}}{11}{subsection.2.2.1}} \@writefile {lof}{\contentsline {figure}{\numberline {2.1}{\ignorespaces Depiction of an aritifical neural network}}{11}{figure.2.1}} \citation {dropELM} \citation {universal_approx} \citation {intro_cnn} \@writefile {toc}{\contentsline {subsection}{\tocsubsection {}{2.2.2}{Backpropagation}}{12}{subsection.2.2.2}} \@writefile {toc}{\contentsline {subsection}{\tocsubsection {}{2.2.3}{Convolutional Neural Networks}}{12}{subsection.2.2.3}} \@writefile {toc}{\contentsline {subsubsection}{\tocsubsubsection {}{2.2.3.1}{Convolution}}{13}{subsubsection.2.2.3.1}} \newlabel {conv_eq}{{2.2.3.1}{13}{Convolution}{subsubsection.2.2.3.1}{}} \@writefile {toc}{\contentsline {subsubsection}{\tocsubsubsection {}{2.2.3.2}{Pooling}}{13}{subsubsection.2.2.3.2}} \newlabel {conv_eq}{{2.2.3.2}{13}{Pooling}{subsubsection.2.2.3.2}{}} \@writefile {toc}{\contentsline {subsubsection}{\tocsubsubsection {}{2.2.3.3}{Softmax}}{14}{subsubsection.2.2.3.3}} \@writefile {toc}{\contentsline {subsubsection}{\tocsubsubsection {}{2.2.3.4}{Cross Entropy Loss}}{14}{subsubsection.2.2.3.4}} \citation {bagging_boosting} \@writefile {toc}{\contentsline {subsubsection}{\tocsubsubsection {}{2.2.3.5}{ReLU}}{15}{subsubsection.2.2.3.5}} \@writefile {toc}{\contentsline {section}{\tocsection {}{2.3}{Transfer Learning}}{15}{section.2.3}} \@writefile {toc}{\contentsline {subsection}{\tocsubsection {}{2.3.1}{Ensembles}}{16}{subsection.2.3.1}} \@writefile {toc}{\contentsline {subsubsection}{\tocsubsubsection {}{2.3.1.1}{Bagging}}{16}{subsubsection.2.3.1.1}} \@writefile {toc}{\contentsline {subsubsection}{\tocsubsubsection {}{2.3.1.2}{Boosting}}{16}{subsubsection.2.3.1.2}} \@writefile {tdo}{\contentsline {todo}{\color@fb@x {}{black}{}{orange}{\leavevmode {\color {orange}o}}\ Include a graphic of bagging and boosting}{16}{section*.33}} \pgfsyspdfmark {pgfid31}{19562750}{28013389} \citation {trained_vs_untrained,accuracy_melenoma,misdiagnosis_rate_melenoma,poor_diagnosis_rate,reproducible_melenoma,diagnostic_accuracy_mel} \citation {comparison_study} \citation {abcde_why} \@writefile {toc}{\contentsline {chapter}{\tocchapter {Chapter}{3}{Literature Review}}{17}{chapter.3}} \@writefile {lof}{\addvspace {10\p@ }} \@writefile {lot}{\addvspace {10\p@ }} \@writefile {tdo}{\contentsline {todo}{\color@fb@x {}{black}{}{orange}{\leavevmode {\color {orange}o}}\ Move criteira to background and reference tables in literview review (as described in the background)}{17}{section*.34}} \pgfsyspdfmark {pgfid32}{19562750}{37334310} \@writefile {tdo}{\contentsline {todo}{\color@fb@x {}{black}{}{orange}{\leavevmode {\color {orange}o}}\ Cross reference}{17}{section*.35}} \pgfsyspdfmark {pgfid33}{19562750}{35379764} \@writefile {toc}{\contentsline {section}{\tocsection {}{3.1}{Criteria for Diagnosis}}{17}{section.3.1}} \@writefile {lot}{\contentsline {table}{\numberline {3.1}{\ignorespaces ABCDE rule set for the diagnosis of Melanoma}}{17}{table.3.1}} \newlabel {abcde-melanoma}{{3.1}{17}{ABCDE rule set for the diagnosis of Melanoma}{table.3.1}{}} \@writefile {lot}{\contentsline {table}{\numberline {3.2}{\ignorespaces 3 point checklist used in the diagnosis of Melanoma}}{18}{table.3.2}} \newlabel {3-point-checklist}{{3.2}{18}{3 point checklist used in the diagnosis of Melanoma}{table.3.2}{}} \@writefile {lot}{\contentsline {table}{\numberline {3.3}{\ignorespaces Menzies method for diagnosing Melanoma given that the lesion is not a symmetric pattern and not of a single colour}}{18}{table.3.3}} \newlabel {menzies-method}{{3.3}{18}{Menzies method for diagnosing Melanoma given that the lesion is not a symmetric pattern and not of a single colour}{table.3.3}{}} \@writefile {lot}{\contentsline {table}{\numberline {3.4}{\ignorespaces 7 point checklist used in the diagnosis of Melanoma. The first three items (Atypical network, etc.) have a value of 2 points, and the rest have a value of 1 point. For a melanoma diagnosis, we need a minimum requirement of 3 points}}{18}{table.3.4}} \newlabel {7-point-checklist}{{3.4}{18}{7 point checklist used in the diagnosis of Melanoma. The first three items (Atypical network, etc.) have a value of 2 points, and the rest have a value of 1 point. For a melanoma diagnosis, we need a minimum requirement of 3 points}{table.3.4}{}} \citation {hair_removal} \citation {filter} \citation {space} \citation {color_quant} \citation {artifact_removal} \citation {artifact_removal} \citation {automatic_extraction} \citation {segmentations} \citation {pre2013deep} \citation {visualise_covnet} \@writefile {toc}{\contentsline {section}{\tocsection {}{3.2}{Techniques prior to deep learning}}{19}{section.3.2}} \newlabel {prev_work}{{3.2}{19}{Techniques prior to deep learning}{section.3.2}{}} \@writefile {toc}{\contentsline {subsection}{\tocsubsection {}{3.2.1}{Preprocessing techniques}}{19}{subsection.3.2.1}} \@writefile {toc}{\contentsline {subsection}{\tocsubsection {}{3.2.2}{Segmentation techniques}}{19}{subsection.3.2.2}} \@writefile {toc}{\contentsline {subsection}{\tocsubsection {}{3.2.3}{Feature extraction}}{20}{subsection.3.2.3}} \newlabel {visualisation_cnn_colours}{{3.1}{20}{Feature extraction}{figure.3.1}{}} \@writefile {lof}{\contentsline {figure}{\numberline {3.1}{\ignorespaces Caption for LOF}}{20}{figure.3.1}} \citation {classifiers,pre2013deep} \@writefile {toc}{\contentsline {subsection}{\tocsubsection {}{3.2.4}{Feature selection}}{21}{subsection.3.2.4}} \@writefile {toc}{\contentsline {subsection}{\tocsubsection {}{3.2.5}{Classification}}{21}{subsection.3.2.5}} \citation {usyd_team,recod_titans,casio_shinshu} \citation {inception} \citation {resnet} \citation {recod_titans} \citation {usyd_team} \@writefile {toc}{\contentsline {section}{\tocsection {}{3.3}{Deep Learning and Computer Assisted Diagnosis of Melanoma}}{22}{section.3.3}} \newlabel {curr_work}{{3.3}{22}{Deep Learning and Computer Assisted Diagnosis of Melanoma}{section.3.3}{}} \@writefile {tdo}{\contentsline {todo}{\color@fb@x {}{black}{}{orange}{\leavevmode {\color {orange}o}}\ INtroduce resnet and inception, brief they are the best and shown in X,Y,Z}{22}{section*.36}} \pgfsyspdfmark {pgfid34}{19562750}{44892509} \citation {diaz_isic} \citation {casio_shinshu} \@writefile {lot}{\contentsline {table}{\numberline {3.5}{\ignorespaces Metrics of the best systems}}{23}{table.3.5}} \newlabel {state-of-art-comparison}{{3.5}{23}{Metrics of the best systems}{table.3.5}{}} \@writefile {tdo}{\contentsline {todo}{\color@fb@x {}{black}{}{orange}{\leavevmode {\color {orange}o}}\ Include table here + include possible the diagnostic acc, sen etc. of best physicians... and show how bad???}{23}{section*.37}} \pgfsyspdfmark {pgfid35}{19562750}{31000912} \citation {early_detection_nonuniform,recent_temporal,mistakes_melenoma} \@writefile {toc}{\contentsline {section}{\tocsection {}{3.4}{Temporal Neural Networks}}{24}{section.3.4}} \newlabel {temporal_networks}{{3.4}{24}{Temporal Neural Networks}{section.3.4}{}} \@writefile {tdo}{\contentsline {todo}{\color@fb@x {}{black}{}{orange}{\leavevmode {\color {orange}o}}\ Make this flow from the previous paragraph, the variation in acquisition is likely to be greater than the variation in growth/evolution}{24}{section*.38}} \pgfsyspdfmark {pgfid36}{19562750}{14403782} \@writefile {toc}{\contentsline {subsection}{\tocsubsection {}{3.4.1}{DeepFlow}}{24}{subsection.3.4.1}} \citation {LSTM} \citation {spike_network_intro} \citation {spike_svm,spike_svm3} \citation {spike_svm2} \@writefile {toc}{\contentsline {subsection}{\tocsubsection {}{3.4.2}{Recurrent Networks \& LSTMs}}{26}{subsection.3.4.2}} \@writefile {toc}{\contentsline {subsection}{\tocsubsection {}{3.4.3}{Spiking Networks}}{26}{subsection.3.4.3}} \@writefile {toc}{\contentsline {section}{\tocsection {}{3.5}{Data Imbalance}}{27}{section.3.5}} \@writefile {tdo}{\contentsline {todo}{\color@fb@x {}{black}{}{orange}{\leavevmode {\color {orange}o}}\ Fix subsection to be under data imbalance}{27}{section*.39}} \pgfsyspdfmark {pgfid37}{19562750}{9119874} \@writefile {tdo}{\contentsline {todo}{\color@fb@x {}{black}{}{orange}{\leavevmode {\color {orange}o}}\ Flow from previous section -> why class imbalance section -> from isic models -> a more suitable approach to our dataset for class imbalance (move this above temporal?)}{27}{section*.40}} \pgfsyspdfmark {pgfid38}{19562750}{7122214} \citation {cost_sensitive_learning} \citation {article} \@writefile {lot}{\contentsline {table}{\numberline {3.6}{\ignorespaces Depiction of a cross matrix (cells that are coloured red are misclassifications, while the ones in green are correct classifications)}}{28}{table.3.6}} \newlabel {cost-matrix}{{3.6}{28}{Depiction of a cross matrix (cells that are coloured red are misclassifications, while the ones in green are correct classifications)}{table.3.6}{}} \@writefile {toc}{\contentsline {section}{\tocsection {}{3.6}{Cost Sensitive Classifier}}{28}{section.3.6}} \newlabel {cost_sensitive}{{3.6}{28}{Cost Sensitive Classifier}{section.3.6}{}} \citation {metacost} \citation {classImbalanceAddress} \@writefile {tdo}{\contentsline {todo}{\color@fb@x {}{black}{}{orange}{\leavevmode {\color {orange}o}}\ \textbf {ANSWER:} why did we go with scaled softmax instead of these approaches strengths/weaknesses, done!}{29}{section*.41}} \pgfsyspdfmark {pgfid39}{19562750}{19372515} \@writefile {tdo}{\contentsline {todo}{\color@fb@x {}{black}{}{orange}{\leavevmode {\color {orange}o}}\ Expand a bit more}{29}{section*.42}} \pgfsyspdfmark {pgfid40}{19562750}{17422900} \citation {undersample} \citation {data_aug_image} \citation {DCGAN} \citation {smote} \citation {medical_review_paper} \@writefile {toc}{\contentsline {section}{\tocsection {}{3.7}{Class Imbalance}}{30}{section.3.7}} \@writefile {toc}{\contentsline {subsection}{\tocsubsection {}{3.7.1}{Undersampling}}{30}{subsection.3.7.1}} \@writefile {toc}{\contentsline {subsection}{\tocsubsection {}{3.7.2}{Oversampling}}{30}{subsection.3.7.2}} \@writefile {toc}{\contentsline {section}{\tocsection {}{3.8}{Summary of gaps}}{31}{section.3.8}} \newlabel {litreviewsummary}{{3.8}{31}{Summary of gaps}{section.3.8}{}} \@writefile {tdo}{\contentsline {todo}{\color@fb@x {}{black}{}{orange}{\leavevmode {\color {orange}o}}\ Enumerate}{31}{section*.43}} \pgfsyspdfmark {pgfid41}{19562750}{30333492} \@writefile {tdo}{\contentsline {todo}{\color@fb@x {}{black}{}{orange}{\leavevmode {\color {orange}o}}\ Complete this}{31}{section*.44}} \pgfsyspdfmark {pgfid42}{19562750}{47247818} \@writefile {toc}{\contentsline {chapter}{\tocchapter {Chapter}{4}{Method}}{33}{chapter.4}} \@writefile {lof}{\addvspace {10\p@ }} \@writefile {lot}{\addvspace {10\p@ }} \newlabel {chap:Method}{{4}{33}{Method}{chapter.4}{}} \@writefile {tdo}{\contentsline {todo}{\color@fb@x {}{black}{}{orange}{\leavevmode {\color {orange}o}}\ Make contributions stand out}{33}{section*.45}} \pgfsyspdfmark {pgfid43}{19562750}{37296692} \@writefile {tdo}{\contentsline {todo}{\color@fb@x {}{black}{}{orange}{\leavevmode {\color {orange}o}}\ reword unskilled to less skilled physician to be more PC}{33}{section*.46}} \pgfsyspdfmark {pgfid44}{19562750}{35379764} \@writefile {tdo}{\contentsline {todo}{\color@fb@x {}{black}{}{orange}{\leavevmode {\color {orange}o}}\ Focus on EXTENSION of current to include temporality as ABCD is spatial, E is temporal}{33}{section*.47}} \pgfsyspdfmark {pgfid45}{19562750}{33491280} \@writefile {tdo}{\contentsline {todo}{\color@fb@x {}{black}{}{orange}{\leavevmode {\color {orange}o}}\ I think this is the discusison \\ scaled loss objective function \\ Imbalanced dataset handling \\ Talk about why the method works \\ Explain why this choice of setup work and why alternatives didn't work or won't work\\ \textbf {Don't make it seem like trial and error}\\ Specify scope of study\\ Show logic behind model (ensemble temporal, why these networks, the differences that make them strong; justify the ensemble) \\ Comparison to prior techniques? show differences \\ Table of comparisons with different metrics\\ Talk about comparisons \\ What do they mean? \\ Thesis writing is logic\\ Include examples of images \\ Cost/benefit analysis such as the patient's finance etc and emotion \\ Why LSTM is not used and cannot be used?\\ Mention other possibilities and why they can't be used? \\ Deepflow can't be used why? \\ Class imbalance, how to resolve? Reference papers \\ }{33}{section*.48}} \pgfsyspdfmark {pgfid46}{19562750}{22473082} \@writefile {toc}{\contentsline {section}{\tocsection {}{4.1}{Datasets}}{33}{section.4.1}} \@writefile {tdo}{\contentsline {todo}{\color@fb@x {}{black}{}{orange}{\leavevmode {\color {orange}o}}\ Talk about the talkset, class imbalance etc \\ Write the number of images in benign vs mel and why benign cases would have more images!}{33}{section*.49}} \pgfsyspdfmark {pgfid47}{19562750}{7084596} \citation {classImbalanceAddress} \newlabel {westmead-data-table}{{4.1}{34}{Westmead Dataset}{table.4.1}{}} \@writefile {lot}{\contentsline {table}{\numberline {4.1}{\ignorespaces Distribution of Westmead Hospital Dataset}}{34}{table.4.1}} \@writefile {toc}{\contentsline {subsection}{\tocsubsection {}{4.1.1}{Westmead Dataset}}{34}{subsection.4.1.1}} \@writefile {tdo}{\contentsline {todo}{\color@fb@x {}{black}{}{orange}{\leavevmode {\color {orange}o}}\ Have gotten HREC (human research ethics committe) approval and all data is deidentified}{34}{section*.50}} \pgfsyspdfmark {pgfid48}{19562750}{35802918} \@writefile {tdo}{\contentsline {todo}{\color@fb@x {}{black}{}{orange}{\leavevmode {\color {orange}o}}\ Fill in the No. Images column}{34}{section*.51}} \pgfsyspdfmark {pgfid49}{19562750}{10206260} \@writefile {toc}{\contentsline {subsection}{\tocsubsection {}{4.1.2}{Augmented Dataset}}{35}{subsection.4.1.2}} \@writefile {tdo}{\contentsline {todo}{\color@fb@x {}{black}{}{orange}{\leavevmode {\color {orange}o}}\ Cite DCGAN paper with diminishing returns}{35}{section*.52}} \pgfsyspdfmark {pgfid50}{19562750}{26735872} \citation {deep_flow} \citation {spike_svm} \citation {LSTM} \@writefile {lof}{\contentsline {figure}{\numberline {4.1}{\ignorespaces Preprocessing steps }}{36}{figure.4.1}} \@writefile {tdo}{\contentsline {todo}{\color@fb@x {}{black}{}{orange}{\leavevmode {\color {orange}o}}\ Top down, left-right and temporal weighting function needs input from baselines}{36}{section*.53}} \pgfsyspdfmark {pgfid51}{19562750}{21360397} \@writefile {tdo}{\contentsline {todo}{\color@fb@x {}{black}{}{orange}{\leavevmode {\color {orange}o}}\ Add key to ensemble diagram for colours}{36}{section*.54}} \pgfsyspdfmark {pgfid52}{19562750}{19415025} \@writefile {toc}{\contentsline {section}{\tocsection {}{4.2}{Ensemble}}{36}{section.4.2}} \@writefile {tdo}{\contentsline {todo}{\color@fb@x {}{black}{}{orange}{\leavevmode {\color {orange}o}}\ Justification of ensemble\\ talk about differnces \\ temporal weights how it addresses the problem\\ Run for 104 epochs on isbi\\ 5 epochs for matcovnet }{36}{section*.55}} \pgfsyspdfmark {pgfid53}{19562750}{12737076} \@writefile {lof}{\contentsline {figure}{\numberline {4.2}{\ignorespaces Ensemble network}}{37}{figure.4.2}} \newlabel {ensemble-diagram}{{4.2}{37}{Ensemble network}{figure.4.2}{}} \@writefile {toc}{\contentsline {subsection}{\tocsubsection {}{4.2.1}{Scaled loss function}}{38}{subsection.4.2.1}} \newlabel {batch-scaled-loss-function}{{4.1}{39}{Scaled loss function}{equation.4.2.1}{}} \newlabel {global-scaled-loss-function}{{4.2}{39}{Scaled loss function}{equation.4.2.2}{}} \@writefile {tdo}{\contentsline {todo}{\color@fb@x {}{black}{}{orange}{\leavevmode {\color {orange}o}}\ Redo section}{40}{section*.56}} \pgfsyspdfmark {pgfid54}{19562750}{41703988} \@writefile {toc}{\contentsline {subsection}{\tocsubsection {}{4.2.2}{Temporal Weighting Function}}{40}{subsection.4.2.2}} \@writefile {toc}{\contentsline {subsubsection}{\tocsubsubsection {}{4.2.2.1}{Temporal Weights on time-frames}}{40}{subsubsection.4.2.2.1}} \newlabel {weights-temporal}{{4.2.2.1}{40}{Temporal Weights on time-frames}{subsubsection.4.2.2.1}{}} \citation {spike_svm,spike_svm2} \@writefile {toc}{\contentsline {subsubsection}{\tocsubsubsection {}{4.2.2.2}{Temporal SVM Classifier using temporal information as a feature}}{41}{subsubsection.4.2.2.2}} \newlabel {svm-temporal}{{4.2.2.2}{41}{Temporal SVM Classifier using temporal information as a feature}{subsubsection.4.2.2.2}{}} \@writefile {tdo}{\contentsline {todo}{\color@fb@x {}{black}{}{orange}{\leavevmode {\color {orange}o}}\ Seperate equation in equation environemnt}{41}{section*.57}} \pgfsyspdfmark {pgfid55}{19562750}{31088179} \@writefile {toc}{\contentsline {section}{\tocsection {}{4.3}{Leave one patient out validation}}{41}{section.4.3}} \newlabel {leave-one-patient-out}{{4.3}{41}{Leave one patient out validation}{section.4.3}{}} \@writefile {loa}{\contentsline {algorithm}{\numberline {1}{\ignorespaces Leave-one out cross validation}}{42}{algorithm.1}} \newlabel {leaveOneOutVali}{{1}{42}{Leave one patient out validation}{algorithm.1}{}} \@writefile {toc}{\contentsline {section}{\tocsection {}{4.4}{Empirical Analysis}}{42}{section.4.4}} \citation {isic2017} \citation {tensorflow} \@writefile {toc}{\contentsline {section}{\tocsection {}{4.5}{Training Procedure}}{43}{section.4.5}} \@writefile {toc}{\contentsline {subsection}{\tocsubsection {}{4.5.1}{RECOD titans}}{43}{subsection.4.5.1}} \citation {diaz_isic} \@writefile {toc}{\contentsline {subsection}{\tocsubsection {}{4.5.2}{DermoKNet}}{44}{subsection.4.5.2}} \@writefile {toc}{\contentsline {subsection}{\tocsubsection {}{4.5.3}{Ensemble}}{45}{subsection.4.5.3}} \@writefile {toc}{\contentsline {subsubsection}{\tocsubsubsection {}{4.5.3.1}{Temporal Weighting Function}}{45}{subsubsection.4.5.3.1}} \@writefile {tdo}{\contentsline {todo}{\color@fb@x {}{black}{}{orange}{\leavevmode {\color {orange}o}}\ Change this if we get time to do this properly}{45}{section*.58}} \pgfsyspdfmark {pgfid56}{19562750}{23534636} \@writefile {tdo}{\contentsline {todo}{\color@fb@x {}{black}{}{orange}{\leavevmode {\color {orange}o}}\ Check references or biblographies}{46}{section*.59}} \pgfsyspdfmark {pgfid57}{19562750}{37870132} \@writefile {tdo}{\contentsline {todo}{\color@fb@x {}{black}{}{orange}{\leavevmode {\color {orange}o}}\ Declare website beforehand of who they are}{46}{section*.60}} \pgfsyspdfmark {pgfid58}{19562750}{35953204} \@writefile {tdo}{\contentsline {todo}{\color@fb@x {}{black}{}{orange}{\leavevmode {\color {orange}o}}\ Try to avoid citing websites (mention date last accessed), find papers wherever possible}{46}{section*.61}} \pgfsyspdfmark {pgfid59}{19562750}{34073894} \@writefile {tdo}{\contentsline {todo}{\color@fb@x {}{black}{}{orange}{\leavevmode {\color {orange}o}}\ CDC.gov, AIHW (Australia) health stats}{46}{section*.62}} \pgfsyspdfmark {pgfid60}{19562750}{32156966} \citation {modern-information,sen_spec_overview} \citation {harmonic_mean_sen_spec} \@writefile {toc}{\contentsline {chapter}{\tocchapter {Chapter}{5}{Evaluation}}{47}{chapter.5}} \@writefile {lof}{\addvspace {10\p@ }} \@writefile {lot}{\addvspace {10\p@ }} \newlabel {chap:evaluation}{{5}{47}{Evaluation}{chapter.5}{}} \@writefile {tdo}{\contentsline {todo}{\color@fb@x {}{black}{}{orange}{\leavevmode {\color {orange}o}}\ NEED AN AVERAGE AT THE BOTTOM OF CERTAIN TABLES!}{47}{section*.63}} \pgfsyspdfmark {pgfid61}{19562750}{37296692} \@writefile {tdo}{\contentsline {todo}{\color@fb@x {}{black}{}{orange}{\leavevmode {\color {orange}o}}\ FIX ALL NOTES SAYING FOLD 5 = 6, and ALSO FIX UP INDEXING EVERYWHERE!!}{47}{section*.64}} \pgfsyspdfmark {pgfid62}{19562750}{35408208} \@writefile {tdo}{\contentsline {todo}{\color@fb@x {}{black}{}{orange}{\leavevmode {\color {orange}o}}\ Introduction steps for evaluation, metrics used + justification, what baselines compared to and everything used the same test/train set so there's no bias, just to introduce what they will see in the following tables}{47}{section*.65}} \pgfsyspdfmark {pgfid63}{19562750}{33391278} \@writefile {tdo}{\contentsline {todo}{\color@fb@x {}{black}{}{orange}{\leavevmode {\color {orange}o}}\ Results are wrong, RECOD was always better, redo later! Recod better because more represenational power AND it was the best in ISIC melanoma diagnosis so it makes sense}{48}{section*.66}} \pgfsyspdfmark {pgfid64}{19562750}{10983574} \@writefile {toc}{\contentsline {section}{\tocsection {}{5.1}{Preliminary Empircal Results}}{49}{section.5.1}} \@writefile {tdo}{\contentsline {todo}{\color@fb@x {}{black}{}{orange}{\leavevmode {\color {orange}o}}\ we show our main results first and demonstrate how each component builds up upon it}{49}{section*.67}} \pgfsyspdfmark {pgfid65}{19562750}{45061223} \@writefile {lot}{\contentsline {table}{\numberline {5.1}{\ignorespaces Baseline results (no data augmentation)}}{49}{table.5.1}} \newlabel {baseline-results}{{5.1}{49}{Baseline results (no data augmentation)}{table.5.1}{}} \@writefile {lot}{\contentsline {table}{\numberline {5.2}{\ignorespaces Different predictions by base classifiers used to calculate ensemble weights}}{49}{table.5.2}} \newlabel {ensemble-weights-table}{{5.2}{49}{Different predictions by base classifiers used to calculate ensemble weights}{table.5.2}{}} \@writefile {lot}{\contentsline {table}{\numberline {5.3}{\ignorespaces Baseline results + data augmentation}}{49}{table.5.3}} \newlabel {time-frame-baseline-recod}{{5.3}{49}{Baseline results + data augmentation}{table.5.3}{}} \@writefile {lot}{\contentsline {table}{\numberline {5.4}{\ignorespaces Base models trained without data augmentation and loss function}}{50}{table.5.4}} \newlabel {overfit-models-no-aug}{{5.4}{50}{Base models trained without data augmentation and loss function}{table.5.4}{}} \@writefile {lot}{\contentsline {table}{\numberline {5.5}{\ignorespaces Baseline, model RECOD, results for time-frames (no data augmentation)}}{50}{table.5.5}} \newlabel {time-frame-baseline-recod}{{5.5}{50}{Baseline, model RECOD, results for time-frames (no data augmentation)}{table.5.5}{}} \@writefile {lot}{\contentsline {table}{\numberline {5.6}{\ignorespaces Baseline, model DERMO, results for time-frames (no data augmentation)}}{50}{table.5.6}} \newlabel {time-frame-baseline-dermo}{{5.6}{50}{Baseline, model DERMO, results for time-frames (no data augmentation)}{table.5.6}{}} \@writefile {lof}{\contentsline {figure}{\numberline {5.1}{\ignorespaces RECOD baseline results across folds}}{51}{figure.5.1}} \newlabel {recod-baseline-time}{{5.1}{51}{RECOD baseline results across folds}{figure.5.1}{}} \@writefile {lof}{\contentsline {figure}{\numberline {5.2}{\ignorespaces DERMO baseline results across folds}}{52}{figure.5.2}} \newlabel {dermo-baseline-time}{{5.2}{52}{DERMO baseline results across folds}{figure.5.2}{}} \@writefile {lot}{\contentsline {table}{\numberline {5.7}{\ignorespaces Confusion matrices of the base models against the augmented dataset generated from the leave one-patient out fold generator}}{53}{table.5.7}} \newlabel {baseline-confusion-aug}{{5.7}{53}{Confusion matrices of the base models against the augmented dataset generated from the leave one-patient out fold generator}{table.5.7}{}} \@writefile {toc}{\contentsline {section}{\tocsection {}{5.2}{Post Training}}{54}{section.5.2}} \@writefile {lof}{\contentsline {figure}{\numberline {5.3}{\ignorespaces Post-Training RECOD results for each time-frame}}{54}{figure.5.3}} \newlabel {post-train-recod-frames}{{5.3}{54}{Post-Training RECOD results for each time-frame}{figure.5.3}{}} \@writefile {lof}{\contentsline {figure}{\numberline {5.4}{\ignorespaces Post Training DermoKnet results for each time-frame}}{55}{figure.5.4}} \newlabel {post-train-dermo-frames}{{5.4}{55}{Post Training DermoKnet results for each time-frame}{figure.5.4}{}} \@writefile {lot}{\contentsline {table}{\numberline {5.8}{\ignorespaces After training result Recod}}{56}{table.5.8}} \newlabel {after-recod-trained}{{5.8}{56}{After training result Recod}{table.5.8}{}} \@writefile {lot}{\contentsline {table}{\numberline {5.9}{\ignorespaces After training result DermoKNet}}{56}{table.5.9}} \newlabel {after-dermoknet-trained}{{5.9}{56}{After training result DermoKNet}{table.5.9}{}} \@writefile {lot}{\contentsline {table}{\numberline {5.10}{\ignorespaces Confusion matrix for RECOD, DermoKnet for each patient fold}}{57}{table.5.10}} \newlabel {post-train-confusion-both-models}{{5.10}{57}{Confusion matrix for RECOD, DermoKnet for each patient fold}{table.5.10}{}} \@writefile {toc}{\contentsline {section}{\tocsection {}{5.3}{Different weighting approaches}}{58}{section.5.3}} \@writefile {toc}{\contentsline {subsection}{\tocsubsection {}{5.3.1}{Per image weighting}}{58}{subsection.5.3.1}} \@writefile {lot}{\contentsline {table}{\numberline {5.11}{\ignorespaces Per imaging weighting utilising SVM-based approaches with the base models RECOD and DermoKnet}}{58}{table.5.11}} \newlabel {per-image-svm}{{5.11}{58}{Per imaging weighting utilising SVM-based approaches with the base models RECOD and DermoKnet}{table.5.11}{}} \@writefile {tdo}{\contentsline {todo}{\color@fb@x {}{black}{}{orange}{\leavevmode {\color {orange}o}}\ Missing combined input signals in a weighted manner}{58}{section*.68}} \pgfsyspdfmark {pgfid66}{19562750}{11803188} \@writefile {tdo}{\contentsline {todo}{\color@fb@x {}{black}{}{orange}{\leavevmode {\color {orange}o}}\ Fill in all ? equations, CTRL F!}{58}{section*.69}} \pgfsyspdfmark {pgfid67}{19562750}{9918373} \@writefile {toc}{\contentsline {subsection}{\tocsubsection {}{5.3.2}{Per patient weighting}}{60}{subsection.5.3.2}} \@writefile {lof}{\contentsline {figure}{\numberline {5.5}{\ignorespaces Per patient weighting approaches for RECOD fine-tuned model}}{60}{figure.5.5}} \newlabel {recod-svm-temporal-patient}{{5.5}{60}{Per patient weighting approaches for RECOD fine-tuned model}{figure.5.5}{}} \@writefile {lof}{\contentsline {figure}{\numberline {5.6}{\ignorespaces Boxplot showing the variation across the folds for each method in the RECOD base model}}{61}{figure.5.6}} \newlabel {recod-svm-temporal-patient-boxplot}{{5.6}{61}{Boxplot showing the variation across the folds for each method in the RECOD base model}{figure.5.6}{}} \@writefile {lof}{\contentsline {figure}{\numberline {5.7}{\ignorespaces Per patient weighting approaches for Dermo fine-tuned model}}{62}{figure.5.7}} \newlabel {dermo-svm-temporal-patient}{{5.7}{62}{Per patient weighting approaches for Dermo fine-tuned model}{figure.5.7}{}} \@writefile {lof}{\contentsline {figure}{\numberline {5.8}{\ignorespaces Boxplot showing the variation across the folds for each method in the DermoKnet base model}}{63}{figure.5.8}} \newlabel {dermo-svm-temporal-patient-boxplot}{{5.8}{63}{Boxplot showing the variation across the folds for each method in the DermoKnet base model}{figure.5.8}{}} \@writefile {lof}{\contentsline {figure}{\numberline {5.9}{\ignorespaces Ensemble approach utilising each base model}}{64}{figure.5.9}} \newlabel {ensemble-patient}{{5.9}{64}{Ensemble approach utilising each base model}{figure.5.9}{}} \@writefile {lof}{\contentsline {figure}{\numberline {5.10}{\ignorespaces Boxplot showing the variation in each of the methods}}{65}{figure.5.10}} \newlabel {ensemble-patient-boxplot}{{5.10}{65}{Boxplot showing the variation in each of the methods}{figure.5.10}{}} \@writefile {toc}{\contentsline {section}{\tocsection {}{5.4}{Discussion \& Analysis}}{66}{section.5.4}} \@writefile {tdo}{\contentsline {todo}{\color@fb@x {}{black}{}{orange}{\leavevmode {\color {orange}o}}\ Describe the results and intepret what they main, aims fufilled yes/no/partially, future work from aims/results if not completely fufilled or if there is anything left to do such as false positive rate}{66}{section*.70}} \pgfsyspdfmark {pgfid68}{19562750}{44786971} \@writefile {tdo}{\contentsline {todo}{\color@fb@x {}{black}{}{orange}{\leavevmode {\color {orange}o}}\ Describe limitations of the study, e.g. more data, more networks to be used, more GPUs to be used, reguarly sampled data etc and how it can be extended under different circumstances (Don't devalue your own work)}{66}{section*.71}} \pgfsyspdfmark {pgfid69}{19562750}{42396095} \@writefile {tdo}{\contentsline {todo}{\color@fb@x {}{black}{}{orange}{\leavevmode {\color {orange}o}}\ Make sure to include future work}{66}{section*.72}} \pgfsyspdfmark {pgfid70}{19562750}{40048333} \@writefile {tdo}{\contentsline {todo}{\color@fb@x {}{black}{}{orange}{\leavevmode {\color {orange}o}}\ Our overall findings show we can :}{66}{section*.73}} \pgfsyspdfmark {pgfid71}{19562750}{38131405} \@writefile {tdo}{\contentsline {todo}{\color@fb@x {}{black}{}{orange}{\leavevmode {\color {orange}o}}\ Aims becomes introduction and the rest becomes justification/evidence/analysis to support}{66}{section*.74}} \pgfsyspdfmark {pgfid72}{19562750}{36214477} \@writefile {toc}{\contentsline {subsection}{\tocsubsection {}{5.4.1}{Aims}}{66}{subsection.5.4.1}} \@writefile {tdo}{\contentsline {todo}{\color@fb@x {}{black}{}{orange}{\leavevmode {\color {orange}o}}\ Significance testing}{66}{section*.75}} \pgfsyspdfmark {pgfid73}{19562750}{20748852} \@writefile {tdo}{\contentsline {todo}{\color@fb@x {}{black}{}{orange}{\leavevmode {\color {orange}o}}\ Baseline ensemble not yet done? For initial....}{66}{section*.76}} \pgfsyspdfmark {pgfid74}{19562750}{18831924} \@writefile {tdo}{\contentsline {todo}{\color@fb@x {}{black}{}{orange}{\leavevmode {\color {orange}o}}\ Cite SVM linear weight paper}{66}{section*.77}} \pgfsyspdfmark {pgfid75}{19562750}{6691380} \@writefile {tdo}{\contentsline {todo}{\color@fb@x {}{black}{}{orange}{\leavevmode {\color {orange}o}}\ significance testing}{69}{section*.78}} \pgfsyspdfmark {pgfid76}{19562750}{18669657} \@writefile {toc}{\contentsline {subsection}{\tocsubsection {}{5.4.2}{Limitations}}{70}{subsection.5.4.2}} \@writefile {toc}{\contentsline {subsection}{\tocsubsection {}{5.4.3}{Future Work}}{70}{subsection.5.4.3}} \@writefile {tdo}{\contentsline {todo}{\color@fb@x {}{black}{}{orange}{\leavevmode {\color {orange}o}}\ Future work: multiple lesion tracking, and multiple lesions being malignant or benign, a more robust weighting function based off validation set or by SVM, exploring better and stronger augmentation strategies such as GAN or SMOTE, include and train more networks in the ensemble.}{70}{section*.79}} \pgfsyspdfmark {pgfid77}{19562750}{16423476} \bibstyle {style/mybibstyle} \@writefile {toc}{\contentsline {chapter}{\tocchapter {Chapter}{6}{Conclusion}}{71}{chapter.6}} \@writefile {lof}{\addvspace {10\p@ }} \@writefile {lot}{\addvspace {10\p@ }} \newlabel {chap:conclusion}{{6}{71}{Conclusion}{chapter.6}{}} \@writefile {tdo}{\contentsline {todo}{\color@fb@x {}{black}{}{orange}{\leavevmode {\color {orange}o}}\ Sumarrise what we have achieved and contributed + lightly summarise extensions/future work}{71}{section*.80}} \pgfsyspdfmark {pgfid78}{19562750}{35379764} \@writefile {tdo}{\contentsline {todo}{\color@fb@x {}{black}{}{orange}{\leavevmode {\color {orange}o}}\ State how it affects the problem domain, such as now this can be used for CAD etc. Implications of the study}{71}{section*.81}} \pgfsyspdfmark {pgfid79}{19562750}{33491280} \@writefile {tdo}{\contentsline {todo}{\color@fb@x {}{black}{}{orange}{\leavevmode {\color {orange}o}}\ Shortest section (page to a page and a half)}{71}{section*.82}} \pgfsyspdfmark {pgfid80}{19562750}{31583526} \bibdata {references} \bibcite {tensorflow}{{1}{2016}{{Abadi et~al.}}{{Abadi, Agarwal, Barham, Brevdo, Chen, Citro, Corrado, Davis, Dean, Devin, Ghemawat, Goodfellow, Harp, Irving, Isard, Jia, J{\'{o}}zefowicz, Kaiser, Kudlur, Levenberg, Man{\'{e}}, Monga, Moore, Murray, Olah, Schuster, Shlens, Steiner, Sutskever, Talwar, Tucker, Vanhoucke, Vasudevan, Vi{\'{e}}gas, Vinyals, Warden, Wattenberg, Wicke, Yu, and Zheng}}} \bibcite {artifact_removal}{{2}{2011}{{Abbas et~al.}}{{Abbas, Fond\IeC {\'o}n, and Rashid}}} \bibcite {specificity_sensitivity}{{3}{1994}{{Altman and Bland}}{{}}} \bibcite {causes_death}{{4}{2010}{{Australia}}{{}}} \bibcite {modern-information}{{5}{1999}{{Baeza-Yates et~al.}}{{Baeza-Yates, Ribeiro-Neto, and Berthier}}} \bibcite {undersample}{{6}{2015}{{Beckmann et~al.}}{{Beckmann, F, Ebecken, L, and de~Lima}}} \bibcite {misdiagnosis_rate_melenoma}{{7}{1998}{{Bernt and Mari-Anne}}{{}}} \bibcite {melanoma_accuracy}{{8}{2017}{{Bhattacharya et~al.}}{{Bhattacharya, Young, Wong, Stalling, Wei, and Hadley}}} \bibcite {usyd_team}{{9}{2017}{{Bi et~al.}}{{Bi, Kim, Ahn, and Feng}}} \bibcite {poor_diagnosis_rate}{{10}{1998}{{CA and RM}}{{}}} \bibcite {filter}{{11}{2005}{{Celebi et~al.}}{{Celebi, Aslandogan, and Bergstresser}}} \@writefile {toc}{\contentsline {chapter}{\tocchapter {Chapter}{}{Bibliography}}{72}{chapter*.84}} \@writefile {lof}{\addvspace {10\p@ }} \@writefile {lot}{\addvspace {10\p@ }} \bibcite {space}{{12}{2007}{{Celebi et~al.}}{{Celebi, Kingravi, and Aslandogan}}} \bibcite {color_quant}{{13}{1990}{{Celenk}}{{}}} \bibcite {ultra_imaging}{{14}{2011}{{Chami et~al.}}{{Chami, Lassau, Chebil, and Robert}}} \bibcite {smote}{{15}{2002}{{Chawla et~al.}}{{Chawla, Bowyer, Hall, and Kegelmeyer}}} \bibcite {isic2017}{{16}{2017}{{Codella et~al.}}{{Codella, Gutman, Celebi, Helba, Marchetti, Dusza, Kalloo, Liopyris, Mishra, Kittler, and Halpern}}} \bibcite {SVM}{{17}{1995}{{Cortes and Vapnik}}{{}}} \bibcite {comparison_study}{{18}{2005}{{Dolianitis et~al.}}{{Dolianitis, Kelly, Wolfe, and Simpson}}} \bibcite {diaz_isic}{{19}{2017}{{D\IeC {\'\i }az}}{{}}} \bibcite {melafind}{{20}{2017}{{Fink et~al.}}{{Fink, Jaeger, Jaeger, and Haenssle}}} \bibcite {optical_coherence}{{21}{2000}{{Fujimoto et~al.}}{{Fujimoto, Pitris, Boppart, and Brezinski}}} \bibcite {uglyduckling}{{22}{2005}{{Gachon et~al.}}{{Gachon, Beaulieu, Sei, Gouvernet, Claudel, Lemaitre, Richard, and Grob}}} \bibcite {isic2016}{{23}{2016}{{Gutman et~al.}}{{Gutman, Codella, Celebi, Helba, Marchetti, Mishra, and Halpern}}} \bibcite {universal_approx}{{24}{1989}{{Gybenko}}{{}}} \bibcite {resnet}{{25}{2015}{{He et~al.}}{{He, Zhang, Ren, and Sun}}} \bibcite {harmonic_mean_sen_spec}{{26}{2009}{{Hoff et~al.}}{{Hoff, Lingner, Meinicke, and Tech}}} \bibcite {dropELM}{{27}{2005}{{Iosifidis et~al.}}{{Iosifidis, Tefas, and Pitas}}} \bibcite {transfer_learning}{{28}{2014}{{Jason et~al.}}{{Jason, Jeff, Yoshua, and Hod}}} \bibcite {mistakes_melenoma}{{29}{2013}{{Kami\IeC {\'n}ska-Winciorek and Placek}}{{}}} \bibcite {data_aug_image}{{30}{2016}{{Kamnitsas et~al.}}{{Kamnitsas, Ledig, Newcombe, Simpson, Kane, Menon, Rueckert, and Glocker}}} \bibcite {cost_sensitive_learning}{{31}{2015}{{Khan et~al.}}{{Khan, Hayat, Bennamoun, Sohel, and Togneri}}} \bibcite {adam}{{32}{2014}{{Kingma and Ba}}{{}}} \bibcite {alexnet}{{33}{2012}{{Krizhevsky et~al.}}{{Krizhevsky, Ilya, and Geoffrey}}} \bibcite {LSTM}{{34}{2015}{{Lipton et~al.}}{{Lipton, Berkowitz, and Elkan}}} \bibcite {medical_review_paper}{{35}{2017}{{Litjens et~al.}}{{Litjens, Kooi, Bejnordi, Setio, Ciompi, Ghafoorian, van~der Laak, van Ginneken, and Sanchez}}} \bibcite {early_detection_nonuniform}{{36}{2013}{{Lucas et~al.}}{{Lucas, Sanders, Murray, Myers, Hall, and Grichnik}}} \bibcite {pre2013deep}{{37}{2013}{{Masood and Al-Jumaily}}{{}}} \bibcite {article}{{38}{1998}{{Matja and Igor}}{{}}} \bibcite {casio_shinshu}{{39}{2017}{{Matsunaga et~al.}}{{Matsunaga, Hamada, Minagawa, and Koga}}} \bibcite {spike_svm}{{40}{2012}{{Maxime and Stefan}}{{}}} \bibcite {accuracy_melenoma}{{41}{1997}{{Mayer}}{{}}} \bibcite {recod_titans}{{42}{2017}{{Menegola et~al.}}{{Menegola, Tavares, Fornaciali, Li, Avila, and Valle}}} \bibcite {mishra:16}{{43}{2016}{{Mishra and Celebi}}{{}}} \bibcite {false_positive_rate}{{44}{1989}{{Morton and Mackie}}{{}}} \bibcite {bagging_boosting}{{45}{1999}{{Opitz and Maclin}}{{}}} \bibcite {intro_cnn}{{46}{2015}{{O'Shea and Nash}}{{}}} \bibcite {metacost}{{47}{1999}{{Pedro}}{{}}} \bibcite {reproducible_melenoma}{{48}{1987}{{Pehamberger et~al.}}{{Pehamberger, Steiner, and Wolff}}} \bibcite {classifiers}{{49}{2009}{{Pereira et~al.}}{{Pereira, Mitchell, and Botvinicka}}} \bibcite {trained_vs_untrained}{{50}{2002}{{Piccolo et~al.}}{{Piccolo, Ferrari, Peris, Diadone, Ruggeri, and Chimenti}}} \bibcite {spike_network_intro}{{51}{2011}{{Ponulak and Kasi\IeC {\'n}ski}}{{}}} \bibcite {mri}{{52}{1996}{{Premkumar et~al.}}{{Premkumar, Marincola, Taubenberger, Chow, Venzon, and Schwartzentruber}}} \bibcite {classImbalanceAddress}{{53}{2013}{{Rahman and Davis}}{{}}} \bibcite {andrew_deep}{{54}{2009}{{Raina et~al.}}{{Raina, Madhavan, and Ng}}} \bibcite {laser_based}{{55}{1995}{{Rajadhyaksha et~al.}}{{Rajadhyaksha, Grossman, Esterowitz, Webb, and Anderson}}} \bibcite {recent_temporal}{{56}{2016}{{Russo et~al.}}{{Russo, Piccolo, Lallas, and Argenziano1}}} \bibcite {hair_removal}{{57}{1999}{{Schmid}}{{}}} \bibcite {automatic_extraction}{{58}{2016}{{Shaheen et~al.}}{{Shaheen, Verma, and Asafuddoula}}} \bibcite {spike_svm2}{{59}{2004}{{Shanhaz~Atabak}}{{}}} \bibcite {segmentations}{{60}{2009}{{Silveira et~al.}}{{Silveira, Nascimento, Marques, Marcal, Mendonca, Yamauchi, Maeda, and Rozeira}}} \bibcite {sen_spec_overview}{{61}{2009}{{Stralen et~al.}}{{Stralen, Reitsma, Dekker, CarmineZoccali, and J.Jager}}} \bibcite {solr_scan}{{62}{2005}{{SW1 et~al.}}{{SW1, L, and Talbot~H}}} \bibcite {inception}{{63}{2014}{{Szegedy et~al.}}{{Szegedy, Liu, Jia, Sermanet, Reed, Anguelov, Erhan, Vanhoucke, and Rabinovich}}} \bibcite {diagnostic_accuracy_mel}{{64}{2008}{{Vestergaard et~al.}}{{Vestergaard, Macaskill, Holt, and Menzies}}} \bibcite {abcde_why}{{65}{2006}{{Weinstock}}{{}}} \bibcite {DCGAN}{{66}{2018}{{{Yi} et~al.}}{{{Yi}, {Walia}, and {Babyn}}}} \bibcite {visualise_covnet}{{67}{2013}{{Zeiler and Fergus}}{{}}} \bibcite {spike_svm3}{{68}{2018}{{Zheng et~al.}}{{Zheng, Li, Tang, and T}}} \bibcite {deep_flow}{{69}{2016}{{Zhu et~al.}}{{Zhu, Xiong, Dai, Yuan, and Wei}}} \newlabel {tocindent-1}{0pt} \newlabel {tocindent0}{67.91135pt} \newlabel {tocindent1}{26.27997pt} \newlabel {tocindent2}{35.58745pt} \newlabel {tocindent3}{0pt} ~al.
